[world-wide-rental-service.bitbucket.io/index.html]
[backblue.gif]
[fade.gif]
[index.html]
[d1frv26ioc12ph.cloudfront.net/dist/77b4755d4f9b7c2bbddda4f2176546ba.png]
[connect.facebook.net/en_US/fbevents.js]
[connect.facebook.net/signals/plugins/iwl8a9d.js]
[connect.facebook.net/signals/plugins/iwl69e3.js]
[d1frv26ioc12ph.cloudfront.net/dist/main-595028bb12bec305233ee0a4bdf78ac8.css]
[pagead2.googlesyndication.com/pagead/js/f.txt]
[connect.facebook.net/en_US/sdk.js]
[connect.facebook.net/signals/plugins/iwl4403.js]
[assets.kochava.com/kochava.js/v1/kochava.min.js]
[www.google-analytics.com/analytics.js]
[adservice.google.com/adsid/ffa33.txt]
[z-m-static.xx.fbcdn.net/rsrc.php/v3/yq/r/IE9JII6Z1Ys.png]
[z-m-static.xx.fbcdn.net/rsrc.php/v3/y9/r/jKEcVPZFk-2.gif]
[static.xx.fbcdn.net/rsrc.php/v3/yq/r/IE9JII6Z1Ys.png]
[static.xx.fbcdn.net/rsrc.php/v3/y9/r/jKEcVPZFk-2.gif]
[adservice.google.com/adsid/f6559.txt]
[adservice.google.com/adsid/fe752.txt]
[www.googletagservices.com/tag/js/gpt.js]
[securepubads.g.doubleclick.net/gpt/pubads_impl_177.js]
[securepubads.g.doubleclick.net/gpt/pubads_impl_173.js]
[securepubads.g.doubleclick.net/gpt/pubads_impl_175.js]
[securepubads.g.doubleclick.net/gpt/pubads_impl_170.js]
[adservice.google.com/adsid/f802f.txt]
[adservice.google.com/adsid/f2d1d.txt]
[adservice.google.com/adsid/f8114.txt]
[adservice.google.com/adsid/ff91b.txt]
[adservice.google.com/adsid/f4e10.txt]
[securepubads.g.doubleclick.net/gpt/pubads_impl_moa_e_20171107.js]
[adservice.google.com/adsid/fb7c7.txt]
[adservice.google.com/adsid/fe075.txt]
[adservice.google.com/adsid/fce13.txt]
[adservice.google.com/adsid/f6010.txt]
[securepubads.g.doubleclick.net/gpt/pubads_impl_162.js]
[securepubads.g.doubleclick.net/gpt/pubads_impl_161.js]
[securepubads.g.doubleclick.net/static/glade.js]
[d1frv26ioc12ph.cloudfront.net/dist/23675162985285612e49db18023353ec.png]
[d1frv26ioc12ph.cloudfront.net/dist/9fe3317938f476e506b3de21c18240e3.png]
[d1frv26ioc12ph.cloudfront.net/dist/f6fc0f0d24dc8eb15f3ae46f8b783a7b.png]
[d1frv26ioc12ph.cloudfront.net/dist/45a5fd424ef0d30b4bf016cb45bbd09c.jpg]
[world-wide-rental-service.bitbucket.io/index.html]
[d1frv26ioc12ph.cloudfront.net/dist/f4769f9bdb7466be65088239c12046d1.eot]
[d1frv26ioc12ph.cloudfront.net/dist/ac02ec03de80e0981bf21cc100cd2296.png]
[d1frv26ioc12ph.cloudfront.net/dist/main-595028bb12bec305233ee0a4bdf78ac8.css]
[d1frv26ioc12ph.cloudfront.net/dist/674f50d287a8c48dc19ba404d20fe713.eot]
[connect.facebook.net/en_US/fbevents.js]
[connect.facebook.net/signals/plugins/iwl8a9d.js]
[connect.facebook.net/signals/plugins/iwl69e3.js]
[connect.facebook.net/signals/plugins/iwl4403.js]
[connect.facebook.net/en_US/sdk.js]
[world-wide-rental-service.bitbucket.io/POST]
